{
	"id": "1a4314dc-b4b9-4007-a971-e28c64502b8f",
	"name": "Reqres SIT",
	"values": [
		{
			"key": "Base_URL",
			"value": "https://reqressit.in",
			"type": "default",
			"enabled": true
		},
		{
			"key": "Post_URL",
			"value": "{{Base_URL}}/api/users",
			"type": "default",
			"enabled": true
		},
		{
			"key": "Get_URL",
			"value": "{{Base_URL}}/api/users/2",
			"type": "default",
			"enabled": true
		},
		{
			"key": "Patch_URL",
			"value": "{{Base_URL}}/api/users/2",
			"type": "default",
			"enabled": true
		},
		{
			"key": "Put_URL",
			"value": "{{Base_URL}}/api/users/2",
			"type": "default",
			"enabled": true
		}
	],
	"_postman_variable_scope": "environment",
	"_postman_exported_at": "2023-10-17T16:58:37.994Z",
	"_postman_exported_using": "Postman/10.19.2"
}